<?xml version="1.0" encoding="UTF-8" standalone="no"?>
<svg xmlns="http://www.w3.org/2000/svg" height="479.4" width="479.4" version="1.1" viewBox="0 0 479.44232 479.44232">
  <path d="m356 448.2a238.7 238.7 0 0 0 32.94 -22.5 238.7 238.7 0 0 1 -19.55 -17.15 238.7 238.7 0 0 1 -66.84 -132.3 238.7 238.7 0 0 0 -62.86 36.09 238.7 238.7 0 0 1 81.32 124.1 238.7 238.7 0 0 1 5.251 25.44 238.7 238.7 0 0 0 29.74 -13.72z" stroke="#111" fill="#f5d412" stroke-width="2"/>
</svg>
