<?xml version="1.0" encoding="UTF-8" standalone="no"?>
<svg xmlns="http://www.w3.org/2000/svg" height="479.4" width="479.4" version="1.1" viewBox="0 0 479.44232 479.44232">
  <path d="m90.62 425.8a238.7 238.7 0 0 0 19.41 -17.27 238.7 238.7 0 0 0 66.85 -132.5 238.7 238.7 0 0 0 -148.2 -8.351 238.7 238.7 0 0 0 -24.79 8.422 238.7 238.7 0 0 0 5.251 25.42 238.7 238.7 0 0 0 81.45 124.3z" stroke="#111" fill="#cdcdcd" stroke-width="2"/>
</svg>
